{
	"digitsCount": {
		"desc": "Количество цифр в загаданном числе",
		"type": "int",
		"example": 5,
		"default": 4
	},
	"fullSign": {
		"desc": "Каким символом помечать совпадение по месту и значению",
		"type": "str",
		"example": "T",
		"default": "B"
	},
	"partSign": {
		"desc": "Каким символом помечать совпадение по месту",
		"type": "str",
		"example": "F",
		"default": "K"
	},
	"logfile": {
		"desc": "Записывать историю ходов в файл (имя файла)",
		"type": "str",
		"example": "c:/guessTheNumber.log",
		"default": "./numbers.log"
	}
}
